^C:\USERS\KALMA\SOURCE\REPOS\LABS_1_OOP_MVC\LABS_1_OOP_MVC\CONTROLER.CPP
/c /ZI /nologo /W3 /WX- /diagnostics:classic /sdl /Od /Oy- /D _MBCS /Gm /EHsc /RTC1 /MDd /GS /fp:precise /Zc:wchar_t /Zc:forScope /Zc:inline /Fo"DEBUG\\" /Fd"DEBUG\VC141.PDB" /Gd /TP /analyze- C:\USERS\KALMA\SOURCE\REPOS\LABS_1_OOP_MVC\LABS_1_OOP_MVC\CONTROLER.CPP
^C:\USERS\KALMA\SOURCE\REPOS\LABS_1_OOP_MVC\LABS_1_OOP_MVC\CONTROLLER2.CPP
/c /ZI /nologo /W3 /WX- /diagnostics:classic /sdl /Od /Oy- /D _MBCS /Gm /EHsc /RTC1 /MDd /GS /fp:precise /Zc:wchar_t /Zc:forScope /Zc:inline /Fo"DEBUG\\" /Fd"DEBUG\VC141.PDB" /Gd /TP /analyze- C:\USERS\KALMA\SOURCE\REPOS\LABS_1_OOP_MVC\LABS_1_OOP_MVC\CONTROLLER2.CPP
^C:\USERS\KALMA\SOURCE\REPOS\LABS_1_OOP_MVC\LABS_1_OOP_MVC\EMPLOYEES.CPP
/c /ZI /nologo /W3 /WX- /diagnostics:classic /sdl /Od /Oy- /D _MBCS /Gm /EHsc /RTC1 /MDd /GS /fp:precise /Zc:wchar_t /Zc:forScope /Zc:inline /Fo"DEBUG\\" /Fd"DEBUG\VC141.PDB" /Gd /TP /analyze- C:\USERS\KALMA\SOURCE\REPOS\LABS_1_OOP_MVC\LABS_1_OOP_MVC\EMPLOYEES.CPP
^C:\USERS\KALMA\SOURCE\REPOS\LABS_1_OOP_MVC\LABS_1_OOP_MVC\MACHINES.CPP
/c /ZI /nologo /W3 /WX- /diagnostics:classic /sdl /Od /Oy- /D _MBCS /Gm /EHsc /RTC1 /MDd /GS /fp:precise /Zc:wchar_t /Zc:forScope /Zc:inline /Fo"DEBUG\\" /Fd"DEBUG\VC141.PDB" /Gd /TP /analyze- C:\USERS\KALMA\SOURCE\REPOS\LABS_1_OOP_MVC\LABS_1_OOP_MVC\MACHINES.CPP
^C:\USERS\KALMA\SOURCE\REPOS\LABS_1_OOP_MVC\LABS_1_OOP_MVC\PLANT.CPP
/c /ZI /nologo /W3 /WX- /diagnostics:classic /sdl /Od /Oy- /D _MBCS /Gm /EHsc /RTC1 /MDd /GS /fp:precise /Zc:wchar_t /Zc:forScope /Zc:inline /Fo"DEBUG\\" /Fd"DEBUG\VC141.PDB" /Gd /TP /analyze- C:\USERS\KALMA\SOURCE\REPOS\LABS_1_OOP_MVC\LABS_1_OOP_MVC\PLANT.CPP
^C:\USERS\KALMA\SOURCE\REPOS\LABS_1_OOP_MVC\LABS_1_OOP_MVC\SOURCE.CPP
/c /ZI /nologo /W3 /WX- /diagnostics:classic /sdl /Od /Oy- /D _MBCS /Gm /EHsc /RTC1 /MDd /GS /fp:precise /Zc:wchar_t /Zc:forScope /Zc:inline /Fo"DEBUG\\" /Fd"DEBUG\VC141.PDB" /Gd /TP /analyze- C:\USERS\KALMA\SOURCE\REPOS\LABS_1_OOP_MVC\LABS_1_OOP_MVC\SOURCE.CPP
^C:\USERS\KALMA\SOURCE\REPOS\LABS_1_OOP_MVC\LABS_1_OOP_MVC\VIEW.CPP
/c /ZI /nologo /W3 /WX- /diagnostics:classic /sdl /Od /Oy- /D _MBCS /Gm /EHsc /RTC1 /MDd /GS /fp:precise /Zc:wchar_t /Zc:forScope /Zc:inline /Fo"DEBUG\\" /Fd"DEBUG\VC141.PDB" /Gd /TP /analyze- C:\USERS\KALMA\SOURCE\REPOS\LABS_1_OOP_MVC\LABS_1_OOP_MVC\VIEW.CPP
