^C:\USERS\KALMA\SOURCE\REPOS\LABS_1_OOP_MVC\LABS_1_OOP_MVC\DEBUG\CONTROLER.OBJ|C:\USERS\KALMA\SOURCE\REPOS\LABS_1_OOP_MVC\LABS_1_OOP_MVC\DEBUG\CONTROLLER2.OBJ|C:\USERS\KALMA\SOURCE\REPOS\LABS_1_OOP_MVC\LABS_1_OOP_MVC\DEBUG\EMPLOYEES.OBJ|C:\USERS\KALMA\SOURCE\REPOS\LABS_1_OOP_MVC\LABS_1_OOP_MVC\DEBUG\MACHINES.OBJ|C:\USERS\KALMA\SOURCE\REPOS\LABS_1_OOP_MVC\LABS_1_OOP_MVC\DEBUG\PLANT.OBJ|C:\USERS\KALMA\SOURCE\REPOS\LABS_1_OOP_MVC\LABS_1_OOP_MVC\DEBUG\SOURCE.OBJ|C:\USERS\KALMA\SOURCE\REPOS\LABS_1_OOP_MVC\LABS_1_OOP_MVC\DEBUG\VIEW.OBJ
C:\USERS\KALMA\SOURCE\REPOS\LABS_1_OOP_MVC\DEBUG\LABS_1_OOP_MVC.ILK
C:\USERS\KALMA\SOURCE\REPOS\LABS_1_OOP_MVC\DEBUG\LABS_1_OOP_MVC.EXE
C:\USERS\KALMA\SOURCE\REPOS\LABS_1_OOP_MVC\DEBUG\LABS_1_OOP_MVC.PDB
